{"score": "save/complete/wayang/p1", "cpu": {"derive": [2.158133, 2.161868, 2.172749, 2.158933, 2.171725, 2.183759], "perform": [0.349642, 0.346426, 0.352304, 0.349934, 0.347599, 0.353806]}, "gc": {"total alloc": 3247.3670501708984, "max alloc": 44.262939453125, "productivity": 0.929}, "system": "tammananny", "patch": {"date": "2017-12-02T00:14:06Z", "hash": "bc13845ffd100ec5cf4725dcfeac6b8100280de7", "name": "switch from Scopes using list-based [LookupCall c] to map-based CallMap c"}, "run_date": "2018-02-03T14:09:06.467673", "ghc": "8.0.2"}
{"score": "save/complete/wayang/cerucuk-punyah.state", "cpu": {"derive": [5.808678, 5.926601, 5.893034, 5.924507, 5.846149, 5.855125], "perform": [1.144837, 1.031296, 1.029724, 1.032738, 1.020631, 1.018281]}, "gc": {"total alloc": 8138.184906005859, "max alloc": 140.58585357666016, "productivity": 0.929}, "system": "tammananny", "patch": {"date": "2017-12-02T00:14:06Z", "hash": "bc13845ffd100ec5cf4725dcfeac6b8100280de7", "name": "switch from Scopes using list-based [LookupCall c] to map-based CallMap c"}, "run_date": "2018-02-03T14:09:06.467673", "ghc": "8.0.2"}
{"score": "save/complete/bloom", "cpu": {"derive": [1.164139, 1.171923, 1.163945, 1.162926, 1.164095, 1.163337], "perform": [0.126524, 0.126616, 0.12667, 0.126792, 0.12611, 0.126854]}, "gc": {"total alloc": 2194.854133605957, "max alloc": 70.77781677246094, "productivity": 0.885}, "system": "tammananny", "patch": {"date": "2017-12-02T00:14:06Z", "hash": "bc13845ffd100ec5cf4725dcfeac6b8100280de7", "name": "switch from Scopes using list-based [LookupCall c] to map-based CallMap c"}, "run_date": "2018-02-03T14:09:06.467673", "ghc": "8.0.2"}
{"score": "save/complete/hex", "cpu": {"derive": [0.651807, 0.652339, 0.6527, 0.652171, 0.65252, 0.65791], "perform": [0.158012, 0.159794, 0.160321, 0.15971, 0.159645, 0.160276]}, "gc": {"total alloc": 2006.898696899414, "max alloc": 32.812049865722656, "productivity": 0.9259999999999999}, "system": "tammananny", "patch": {"date": "2017-12-02T00:14:06Z", "hash": "bc13845ffd100ec5cf4725dcfeac6b8100280de7", "name": "switch from Scopes using list-based [LookupCall c] to map-based CallMap c"}, "run_date": "2018-02-03T14:09:06.467673", "ghc": "8.0.2"}
{"score": "save/complete/viola-sonata", "cpu": {"lilypond": [2.014288, 2.017884, 2.021383, 2.000108, 2.004529, 1.999944], "perform": [0.197617, 0.198308, 0.196729, 0.196338, 0.195645, 0.195646], "derive": [2.261446, 2.273506, 2.257395, 2.258298, 2.25885, 2.253925]}, "gc": {"total alloc": 5944.42724609375, "max alloc": 69.57682800292969, "productivity": 0.925}, "system": "tammananny", "patch": {"date": "2017-12-02T00:14:06Z", "hash": "bc13845ffd100ec5cf4725dcfeac6b8100280de7", "name": "switch from Scopes using list-based [LookupCall c] to map-based CallMap c"}, "run_date": "2018-02-03T14:09:06.467673", "ghc": "8.0.2"}
{"score": "save/complete/squart/6", "cpu": {"lilypond": [0.666839, 0.742331, 0.736835, 0.667636, 0.666523, 0.662752], "perform": [0.147868, 0.148032, 0.148226, 0.147574, 0.147642, 0.147878], "derive": [0.792393, 0.793646, 0.792327, 0.794989, 0.793103, 0.793954]}, "gc": {"total alloc": 2842.762077331543, "max alloc": 76.82488250732422, "productivity": 0.8859999999999999}, "system": "tammananny", "patch": {"date": "2017-12-02T00:14:06Z", "hash": "bc13845ffd100ec5cf4725dcfeac6b8100280de7", "name": "switch from Scopes using list-based [LookupCall c] to map-based CallMap c"}, "run_date": "2018-02-03T14:09:06.467673", "ghc": "8.0.2"}
