{"score": "save/complete/wayang/p1", "cpu": {"perform": [0.294703, 0.29341, 0.295227, 0.291002, 0.292796, 0.293577], "derive": [2.410765, 2.42183, 2.420679, 2.40241, 2.425031, 2.422633]}, "gc": {"total alloc": 3591.6995162963867, "max alloc": 66.98035430908203, "productivity": 0.92}, "system": "tammananny", "patch": {"date": "2018-02-02T05:43:41Z", "hash": "786274267808c60307fdb5a3f32f8bb1426f8575", "name": "solkattu: more korvais"}, "run_date": "2018-02-03T15:47:10.515910", "ghc": "8.0.2"}
{"score": "save/complete/wayang/cerucuk-punyah.state", "cpu": {"perform": [0.838976, 0.835103, 0.828439, 0.828756, 0.83568, 0.824492], "derive": [6.505093, 6.489447, 6.458977, 6.459947, 6.599956, 6.441218]}, "gc": {"total alloc": 8949.499496459961, "max alloc": 140.96963500976562, "productivity": 0.93}, "system": "tammananny", "patch": {"date": "2018-02-02T05:43:41Z", "hash": "786274267808c60307fdb5a3f32f8bb1426f8575", "name": "solkattu: more korvais"}, "run_date": "2018-02-03T15:47:10.515910", "ghc": "8.0.2"}
{"score": "save/complete/bloom", "cpu": {"perform": [0.118857, 0.119941, 0.117805, 0.117639, 0.117758, 0.117318], "derive": [1.188729, 1.196497, 1.189364, 1.190424, 1.189172, 1.184948]}, "gc": {"total alloc": 2219.670135498047, "max alloc": 70.706787109375, "productivity": 0.887}, "system": "tammananny", "patch": {"date": "2018-02-02T05:43:41Z", "hash": "786274267808c60307fdb5a3f32f8bb1426f8575", "name": "solkattu: more korvais"}, "run_date": "2018-02-03T15:47:10.515910", "ghc": "8.0.2"}
{"score": "save/complete/hex", "cpu": {"perform": [0.148658, 0.149144, 0.149212, 0.149447, 0.148211, 0.147281], "derive": [0.649831, 0.659364, 0.65852, 0.656578, 0.654448, 0.652048]}, "gc": {"total alloc": 1959.9949340820312, "max alloc": 32.639739990234375, "productivity": 0.9129999999999999}, "system": "tammananny", "patch": {"date": "2018-02-02T05:43:41Z", "hash": "786274267808c60307fdb5a3f32f8bb1426f8575", "name": "solkattu: more korvais"}, "run_date": "2018-02-03T15:47:10.515910", "ghc": "8.0.2"}
{"score": "save/complete/viola-sonata", "cpu": {"perform": [0.186913, 0.184688, 0.184488, 0.187531, 0.185374, 0.184957], "derive": [2.353706, 2.337319, 2.340233, 2.332083, 2.33288, 2.337117], "lilypond": [2.013646, 1.98729, 1.996983, 1.988665, 2.010922, 1.992667]}, "gc": {"total alloc": 6011.501754760742, "max alloc": 69.45684814453125, "productivity": 0.922}, "system": "tammananny", "patch": {"date": "2018-02-02T05:43:41Z", "hash": "786274267808c60307fdb5a3f32f8bb1426f8575", "name": "solkattu: more korvais"}, "run_date": "2018-02-03T15:47:10.515910", "ghc": "8.0.2"}
{"score": "save/complete/squart/6", "cpu": {"perform": [0.141684, 0.139859, 0.140418, 0.143995, 0.197175, 0.137895], "derive": [0.798819, 0.805105, 0.806707, 0.805536, 0.741361, 0.79755], "lilypond": [0.655837, 0.648715, 0.662304, 0.664279, 0.654293, 0.649684]}, "gc": {"total alloc": 2858.599967956543, "max alloc": 78.64932250976562, "productivity": 0.882}, "system": "tammananny", "patch": {"date": "2018-02-02T05:43:41Z", "hash": "786274267808c60307fdb5a3f32f8bb1426f8575", "name": "solkattu: more korvais"}, "run_date": "2018-02-03T15:47:10.515910", "ghc": "8.0.2"}
