{"run_date": "2018-03-10T15:51:29.310686", "system": "hobbes", "patch": {"date": "2018-03-10T23:49:46Z", "hash": "ed887640f6b9354a01ba04b890ff451880be9710", "name": "minor updates in TODO"}, "score": "save/complete/wayang/p1", "gc": {"max alloc": 66.8453369140625, "productivity": 0.92, "total alloc": 4012.4108505249023}, "ghc": "8.0.2", "cpu": {"perform": [0.465551, 0.455109, 0.46198, 0.471221, 0.474987, 0.461983], "derive": [2.679865, 2.613812, 2.613958, 2.637165, 2.592522, 2.602963]}}
{"run_date": "2018-03-10T15:51:29.310686", "system": "hobbes", "patch": {"date": "2018-03-10T23:49:46Z", "hash": "ed887640f6b9354a01ba04b890ff451880be9710", "name": "minor updates in TODO"}, "score": "save/complete/wayang/cerucuk-punyah.state", "gc": {"max alloc": 137.5219955444336, "productivity": 0.9279999999999999, "total alloc": 10006.744804382324}, "ghc": "8.0.2", "cpu": {"perform": [1.237178, 1.248636, 1.214581, 1.232451, 1.252097, 1.264551], "derive": [6.924312, 6.923646, 6.933814, 6.950087, 6.954543, 6.909362]}}
{"run_date": "2018-03-10T15:51:29.310686", "system": "hobbes", "patch": {"date": "2018-03-10T23:49:46Z", "hash": "ed887640f6b9354a01ba04b890ff451880be9710", "name": "minor updates in TODO"}, "score": "save/complete/bloom", "gc": {"max alloc": 70.50817108154297, "productivity": 0.887, "total alloc": 2431.4184951782227}, "ghc": "8.0.2", "cpu": {"perform": [0.150072, 0.1436, 0.144655, 0.150378, 0.148372, 0.145519], "derive": [1.295612, 1.354852, 1.326535, 1.287177, 1.313748, 1.315829]}}
{"run_date": "2018-03-10T15:51:29.310686", "system": "hobbes", "patch": {"date": "2018-03-10T23:49:46Z", "hash": "ed887640f6b9354a01ba04b890ff451880be9710", "name": "minor updates in TODO"}, "score": "save/complete/hex", "gc": {"max alloc": 32.799041748046875, "productivity": 0.9109999999999999, "total alloc": 2110.0962982177734}, "ghc": "8.0.2", "cpu": {"perform": [0.169355, 0.1634, 0.163054, 0.168637, 0.163333, 0.16139], "derive": [0.763769, 0.760521, 0.751153, 0.756737, 0.760123, 0.765387]}}
{"run_date": "2018-03-10T15:51:29.310686", "system": "hobbes", "patch": {"date": "2018-03-10T23:49:46Z", "hash": "ed887640f6b9354a01ba04b890ff451880be9710", "name": "minor updates in TODO"}, "score": "save/complete/viola-sonata", "gc": {"max alloc": 69.22282409667969, "productivity": 0.92, "total alloc": 6029.708183288574}, "ghc": "8.0.2", "cpu": {"perform": [0.244602, 0.246353, 0.245939, 0.246749, 0.237582, 0.246675], "derive": [2.484776, 2.42713, 2.454787, 2.457807, 2.451281, 2.470399], "lilypond": [2.067648, 2.008003, 2.028492, 2.0153, 2.036838, 2.039046]}}
{"run_date": "2018-03-10T15:51:29.310686", "system": "hobbes", "patch": {"date": "2018-03-10T23:49:46Z", "hash": "ed887640f6b9354a01ba04b890ff451880be9710", "name": "minor updates in TODO"}, "score": "save/complete/squart/6", "gc": {"max alloc": 76.02235412597656, "productivity": 0.88, "total alloc": 3267.1377716064453}, "ghc": "8.0.2", "cpu": {"perform": [0.220046, 0.229648, 0.22524, 0.233356, 0.225719, 0.218791], "derive": [0.878869, 0.878002, 0.865204, 0.866239, 0.874852, 0.882126], "lilypond": [0.697816, 0.706554, 0.68282, 0.704452, 0.693382, 0.684448]}}
