{"run_date": "2018-02-01T12:04:33.805712", "system": "hobbes", "patch": {"date": "2018-02-01T19:18:08Z", "hash": "3fb0f1f9c6603b104597c9a499899e372133fdf4", "name": "profile_verify.py: clear the scratch dir, and add a system field"}, "score": "save/complete/wayang/p1", "gc": {"max alloc": 66.8248062133789, "productivity": 0.925, "total alloc": 3921.6026763916016}, "ghc": "8.0.2", "cpu": {"perform": [0.456733, 0.462477, 0.457927, 0.465062, 0.459639, 0.466757], "derive": [2.629816, 2.622047, 2.629745, 2.618385, 2.660193, 2.602398]}}
{"run_date": "2018-02-01T12:04:33.805712", "system": "hobbes", "patch": {"date": "2018-02-01T19:18:08Z", "hash": "3fb0f1f9c6603b104597c9a499899e372133fdf4", "name": "profile_verify.py: clear the scratch dir, and add a system field"}, "score": "save/complete/wayang/cerucuk-punyah.state", "gc": {"max alloc": 139.2696075439453, "productivity": 0.9329999999999999, "total alloc": 9802.594841003418}, "ghc": "8.0.2", "cpu": {"perform": [1.222166, 1.246482, 1.205562, 1.211548, 1.190452, 1.217165], "derive": [6.963635, 6.987796, 6.924428, 7.007245, 6.902441, 6.936008]}}
{"run_date": "2018-02-01T12:04:33.805712", "system": "hobbes", "patch": {"date": "2018-02-01T19:18:08Z", "hash": "3fb0f1f9c6603b104597c9a499899e372133fdf4", "name": "profile_verify.py: clear the scratch dir, and add a system field"}, "score": "save/complete/bloom", "gc": {"max alloc": 71.12385559082031, "productivity": 0.892, "total alloc": 2397.115707397461}, "ghc": "8.0.2", "cpu": {"perform": [0.148442, 0.147664, 0.145859, 0.162489, 0.149494, 0.149559], "derive": [1.294001, 1.310228, 1.291561, 1.298693, 1.294324, 1.306257]}}
{"run_date": "2018-02-01T12:04:33.805712", "system": "hobbes", "patch": {"date": "2018-02-01T19:18:08Z", "hash": "3fb0f1f9c6603b104597c9a499899e372133fdf4", "name": "profile_verify.py: clear the scratch dir, and add a system field"}, "score": "save/complete/hex", "gc": {"max alloc": 33.115806579589844, "productivity": 0.915, "total alloc": 2032.3688354492188}, "ghc": "8.0.2", "cpu": {"perform": [0.160526, 0.156643, 0.156724, 0.157597, 0.15742, 0.161325], "derive": [0.754852, 0.756924, 0.746367, 0.761775, 0.757542, 0.750252]}}
{"run_date": "2018-02-01T12:04:33.805712", "system": "hobbes", "patch": {"date": "2018-02-01T19:18:08Z", "hash": "3fb0f1f9c6603b104597c9a499899e372133fdf4", "name": "profile_verify.py: clear the scratch dir, and add a system field"}, "score": "save/complete/viola-sonata", "gc": {"max alloc": 69.39584350585938, "productivity": 0.9229999999999999, "total alloc": 5941.132423400879}, "ghc": "8.0.2", "cpu": {"perform": [0.244784, 0.244552, 0.240033, 0.241336, 0.242181, 0.23667], "derive": [2.41336, 2.427481, 2.443661, 2.469636, 2.426707, 2.439317], "lilypond": [1.973096, 1.989346, 2.061594, 1.987944, 1.981932, 2.016204]}}
{"run_date": "2018-02-01T12:04:33.805712", "system": "hobbes", "patch": {"date": "2018-02-01T19:18:08Z", "hash": "3fb0f1f9c6603b104597c9a499899e372133fdf4", "name": "profile_verify.py: clear the scratch dir, and add a system field"}, "score": "save/complete/squart/6", "gc": {"max alloc": 72.18170166015625, "productivity": 0.888, "total alloc": 3238.879592895508}, "ghc": "8.0.2", "cpu": {"perform": [0.313159, 0.30802, 0.314074, 0.311814, 0.316349, 0.311523], "derive": [0.786352, 0.763958, 0.779197, 0.79419, 0.777262, 0.781481], "lilypond": [0.691144, 0.702067, 0.685155, 0.681778, 0.680339, 0.671734]}}
