{"run_date": "2018-02-02T19:25:51.739781", "system": "hobbes", "patch": {"date": "2018-01-06T20:18:45Z", "hash": "0368707372a9e34e33e43dcb2b6a9aa5632a6bc9", "name": "linear: remove Score.event_control_offset and event_untransformed_*"}, "score": "save/complete/wayang/p1", "gc": {"max alloc": 68.32357025146484, "productivity": 0.915, "total alloc": 3581.0072021484375}, "ghc": "8.0.2", "cpu": {"perform": [0.291202, 0.301541, 0.311671, 0.286467, 0.292203, 0.28142], "derive": [2.430475, 2.425536, 2.400329, 2.406349, 2.413348, 2.431642]}}
{"run_date": "2018-02-02T19:25:51.739781", "system": "hobbes", "patch": {"date": "2018-01-06T20:18:45Z", "hash": "0368707372a9e34e33e43dcb2b6a9aa5632a6bc9", "name": "linear: remove Score.event_control_offset and event_untransformed_*"}, "score": "save/complete/wayang/cerucuk-punyah.state", "gc": {"max alloc": 142.96778106689453, "productivity": 0.922, "total alloc": 8881.149871826172}, "ghc": "8.0.2", "cpu": {"perform": [0.827123, 0.839161, 0.809387, 0.821185, 0.828293, 0.818644], "derive": [6.274078, 6.303063, 6.355881, 6.255555, 6.296857, 6.259775]}}
{"run_date": "2018-02-02T19:25:51.739781", "system": "hobbes", "patch": {"date": "2018-01-06T20:18:45Z", "hash": "0368707372a9e34e33e43dcb2b6a9aa5632a6bc9", "name": "linear: remove Score.event_control_offset and event_untransformed_*"}, "score": "save/complete/bloom", "gc": {"max alloc": 71.28702545166016, "productivity": 0.8740000000000001, "total alloc": 2171.577796936035}, "ghc": "8.0.2", "cpu": {"perform": [0.094594, 0.099476, 0.095671, 0.100117, 0.097996, 0.098345], "derive": [1.169919, 1.164505, 1.181942, 1.178993, 1.209426, 1.178317]}}
{"run_date": "2018-02-02T19:25:51.739781", "system": "hobbes", "patch": {"date": "2018-01-06T20:18:45Z", "hash": "0368707372a9e34e33e43dcb2b6a9aa5632a6bc9", "name": "linear: remove Score.event_control_offset and event_untransformed_*"}, "score": "save/complete/hex", "gc": {"max alloc": 33.254371643066406, "productivity": 0.9109999999999999, "total alloc": 1915.9933242797852}, "ghc": "8.0.2", "cpu": {"perform": [0.128212, 0.132399, 0.128372, 0.132318, 0.134139, 0.131305], "derive": [0.693941, 0.673456, 0.699657, 0.681766, 0.69992, 0.690198]}}
{"run_date": "2018-02-02T19:25:51.739781", "system": "hobbes", "patch": {"date": "2018-01-06T20:18:45Z", "hash": "0368707372a9e34e33e43dcb2b6a9aa5632a6bc9", "name": "linear: remove Score.event_control_offset and event_untransformed_*"}, "score": "save/complete/viola-sonata", "gc": {"max alloc": 69.8226318359375, "productivity": 0.9179999999999999, "total alloc": 5929.654502868652}, "ghc": "8.0.2", "cpu": {"perform": [0.158087, 0.157174, 0.160189, 0.163706, 0.158605, 0.157927], "derive": [2.345089, 2.341605, 2.344023, 2.323798, 2.313015, 2.350763], "lilypond": [2.009907, 1.976815, 1.99944, 1.970932, 2.013528, 2.015655]}}
{"run_date": "2018-02-02T19:25:51.739781", "system": "hobbes", "patch": {"date": "2018-01-06T20:18:45Z", "hash": "0368707372a9e34e33e43dcb2b6a9aa5632a6bc9", "name": "linear: remove Score.event_control_offset and event_untransformed_*"}, "score": "save/complete/squart/6", "gc": {"max alloc": 72.2025375366211, "productivity": 0.879, "total alloc": 2811.5834426879883}, "ghc": "8.0.2", "cpu": {"perform": [0.220522, 0.205849, 0.208537, 0.193076, 0.206772, 0.205173], "derive": [0.79292, 0.76185, 0.768473, 0.769231, 0.773976, 0.773694], "lilypond": [0.679039, 0.666425, 0.693747, 0.682349, 0.688547, 0.673194]}}
