{"run_date": "2018-02-05T15:18:13.394822", "system": "hobbes", "patch": {"date": "2018-02-05T23:13:21Z", "hash": "bee295d98b37957b2351a624e55b46669eeb6d38", "name": "linear: drop some duplicate samples in Segment.concat"}, "score": "save/complete/wayang/p1", "gc": {"max alloc": 65.712890625, "productivity": 0.9259999999999999, "total alloc": 3905.26766204834}, "ghc": "8.0.2", "cpu": {"perform": [0.453814, 0.453487, 0.451103, 0.449442, 0.451736, 0.452338], "derive": [2.605, 2.624658, 2.617506, 2.600509, 2.666575, 2.602801]}}
{"run_date": "2018-02-05T15:18:13.394822", "system": "hobbes", "patch": {"date": "2018-02-05T23:13:21Z", "hash": "bee295d98b37957b2351a624e55b46669eeb6d38", "name": "linear: drop some duplicate samples in Segment.concat"}, "score": "save/complete/wayang/cerucuk-punyah.state", "gc": {"max alloc": 138.13249969482422, "productivity": 0.932, "total alloc": 9731.117599487305}, "ghc": "8.0.2", "cpu": {"perform": [1.219352, 1.191145, 1.203769, 1.215082, 1.237281, 1.183759], "derive": [6.866963, 6.78274, 6.810048, 6.717076, 6.790195, 6.820766]}}
{"run_date": "2018-02-05T15:18:13.394822", "system": "hobbes", "patch": {"date": "2018-02-05T23:13:21Z", "hash": "bee295d98b37957b2351a624e55b46669eeb6d38", "name": "linear: drop some duplicate samples in Segment.concat"}, "score": "save/complete/bloom", "gc": {"max alloc": 71.223388671875, "productivity": 0.887, "total alloc": 2396.151710510254}, "ghc": "8.0.2", "cpu": {"perform": [0.141537, 0.140353, 0.148912, 0.143225, 0.145007, 0.141522], "derive": [1.31146, 1.308458, 1.29582, 1.285595, 1.282426, 1.457285]}}
{"run_date": "2018-02-05T15:18:13.394822", "system": "hobbes", "patch": {"date": "2018-02-05T23:13:21Z", "hash": "bee295d98b37957b2351a624e55b46669eeb6d38", "name": "linear: drop some duplicate samples in Segment.concat"}, "score": "save/complete/hex", "gc": {"max alloc": 33.07337951660156, "productivity": 0.92, "total alloc": 2032.728515625}, "ghc": "8.0.2", "cpu": {"perform": [0.159648, 0.158524, 0.160327, 0.157652, 0.157418, 0.158353], "derive": [0.781912, 0.770877, 0.776737, 0.7668, 0.768916, 0.775489]}}
{"run_date": "2018-02-05T15:18:13.394822", "system": "hobbes", "patch": {"date": "2018-02-05T23:13:21Z", "hash": "bee295d98b37957b2351a624e55b46669eeb6d38", "name": "linear: drop some duplicate samples in Segment.concat"}, "score": "save/complete/viola-sonata", "gc": {"max alloc": 69.6233139038086, "productivity": 0.927, "total alloc": 5922.933769226074}, "ghc": "8.0.2", "cpu": {"perform": [0.245642, 0.241433, 0.245862, 0.237749, 0.242743, 0.25069], "derive": [2.525404, 2.52792, 2.488592, 2.537999, 2.50854, 2.447411], "lilypond": [2.068518, 2.140664, 2.03582, 2.041308, 2.056753, 2.048744]}}
{"run_date": "2018-02-05T15:18:13.394822", "system": "hobbes", "patch": {"date": "2018-02-05T23:13:21Z", "hash": "bee295d98b37957b2351a624e55b46669eeb6d38", "name": "linear: drop some duplicate samples in Segment.concat"}, "score": "save/complete/squart/6", "gc": {"max alloc": 71.97341918945312, "productivity": 0.894, "total alloc": 3234.1441497802734}, "ghc": "8.0.2", "cpu": {"perform": [0.317757, 0.329983, 0.306973, 0.31828, 0.314331, 0.324813], "derive": [0.809721, 0.818279, 0.800122, 0.829066, 0.829869, 0.826195], "lilypond": [0.711059, 0.695038, 0.71652, 0.737034, 0.725196, 0.717087]}}
