{"score": "save/complete/wayang/p1", "cpu": {"perform": [0.292434, 0.294051, 0.293961, 0.295072, 0.295475, 0.296321], "derive": [2.377212, 2.397341, 2.392091, 2.391179, 2.391952, 2.410926]}, "gc": {"total alloc": 3591.5559844970703, "max alloc": 66.9782943725586, "productivity": 0.9179999999999999}, "system": "tammananny", "patch": {"date": "2018-01-10T23:19:19Z", "hash": "c0cacbf7d5e8bca08a20c06a956d6ec61f130964", "name": "replace the Patch.ConstantPitch flag with DUtil.constant_controls"}, "run_date": "2018-02-03T15:16:59.069264", "ghc": "8.0.2"}
{"score": "save/complete/wayang/cerucuk-punyah.state", "cpu": {"perform": [0.837849, 0.841551, 0.833169, 0.831377, 0.841657, 0.833767], "derive": [6.427822, 6.429955, 6.395167, 6.423712, 6.450884, 6.420725]}, "gc": {"total alloc": 8949.173805236816, "max alloc": 140.97059631347656, "productivity": 0.927}, "system": "tammananny", "patch": {"date": "2018-01-10T23:19:19Z", "hash": "c0cacbf7d5e8bca08a20c06a956d6ec61f130964", "name": "replace the Patch.ConstantPitch flag with DUtil.constant_controls"}, "run_date": "2018-02-03T15:16:59.069264", "ghc": "8.0.2"}
{"score": "save/complete/bloom", "cpu": {"perform": [0.120694, 0.119806, 0.120272, 0.120678, 0.120571, 0.11994], "derive": [1.198691, 1.189845, 1.194496, 1.197084, 1.188818, 1.185594]}, "gc": {"total alloc": 2220.3475036621094, "max alloc": 70.71540832519531, "productivity": 0.8859999999999999}, "system": "tammananny", "patch": {"date": "2018-01-10T23:19:19Z", "hash": "c0cacbf7d5e8bca08a20c06a956d6ec61f130964", "name": "replace the Patch.ConstantPitch flag with DUtil.constant_controls"}, "run_date": "2018-02-03T15:16:59.069264", "ghc": "8.0.2"}
{"score": "save/complete/hex", "cpu": {"perform": [0.150177, 0.149962, 0.151107, 0.15055, 0.150737, 0.149886], "derive": [0.655252, 0.660308, 0.66095, 0.654169, 0.65238, 0.655023]}, "gc": {"total alloc": 1962.0955123901367, "max alloc": 32.639060974121094, "productivity": 0.9109999999999999}, "system": "tammananny", "patch": {"date": "2018-01-10T23:19:19Z", "hash": "c0cacbf7d5e8bca08a20c06a956d6ec61f130964", "name": "replace the Patch.ConstantPitch flag with DUtil.constant_controls"}, "run_date": "2018-02-03T15:16:59.069264", "ghc": "8.0.2"}
{"score": "save/complete/viola-sonata", "cpu": {"derive": [2.339197, 2.333974, 2.354586, 2.332846, 2.334987, 2.357667], "perform": [0.187794, 0.187243, 0.188089, 0.187145, 0.188193, 0.189113], "lilypond": [1.988495, 1.99426, 2.010595, 1.992688, 2.077449, 2.067672]}, "gc": {"total alloc": 6011.395370483398, "max alloc": 69.45661926269531, "productivity": 0.924}, "system": "tammananny", "patch": {"date": "2018-01-10T23:19:19Z", "hash": "c0cacbf7d5e8bca08a20c06a956d6ec61f130964", "name": "replace the Patch.ConstantPitch flag with DUtil.constant_controls"}, "run_date": "2018-02-03T15:16:59.069264", "ghc": "8.0.2"}
{"score": "save/complete/squart/6", "cpu": {"derive": [0.80126, 0.807599, 0.802691, 0.802349, 0.798919, 0.807943], "perform": [0.140156, 0.143574, 0.140359, 0.140181, 0.141397, 0.141582], "lilypond": [0.657187, 0.663977, 0.654454, 0.657326, 0.657715, 0.661812]}, "gc": {"total alloc": 2859.680953979492, "max alloc": 78.6493911743164, "productivity": 0.88}, "system": "tammananny", "patch": {"date": "2018-01-10T23:19:19Z", "hash": "c0cacbf7d5e8bca08a20c06a956d6ec61f130964", "name": "replace the Patch.ConstantPitch flag with DUtil.constant_controls"}, "run_date": "2018-02-03T15:16:59.069264", "ghc": "8.0.2"}
