{"score": "save/complete/wayang/p1", "cpu": {"perform": [0.606078, 0.607014, 0.598978, 0.587596, 0.580357, 0.600388], "derive": [3.287773, 3.222746, 3.201267, 3.29136, 3.225074, 3.240015]}, "gc": {"total alloc": 3774.7371826171875, "max alloc": 68.20782470703125, "productivity": 0.645}, "system": "hobbes", "ghc": "8.4.4", "patch": {"date": "2019-03-30T02:47:10Z", "hash": "c7a626fb3a5e8886551aaaf663fe28def04c44ba", "name": "remove Signal.to_pairs_unique"}, "run_date": "2019-03-30T19:20:54.261167"}
{"score": "save/complete/wayang/cerucuk-punyah.state", "cpu": {"perform": [1.614577, 1.623252, 1.595483, 1.6226, 1.602952, 1.633034], "derive": [8.421454, 8.461413, 8.45078, 8.446267, 8.418584, 8.490704]}, "gc": {"total alloc": 9201.818145751953, "max alloc": 134.91204071044922, "productivity": 0.6629999999999999}, "system": "hobbes", "ghc": "8.4.4", "patch": {"date": "2019-03-30T02:47:10Z", "hash": "c7a626fb3a5e8886551aaaf663fe28def04c44ba", "name": "remove Signal.to_pairs_unique"}, "run_date": "2019-03-30T19:20:54.261167"}
{"score": "save/complete/bloom", "cpu": {"perform": [0.221075, 0.221977, 0.218894, 0.225528, 0.218611, 0.218015], "derive": [1.925324, 1.930171, 1.924833, 1.918157, 1.908297, 1.907907]}, "gc": {"total alloc": 2584.5929565429688, "max alloc": 68.77098846435547, "productivity": 0.612}, "system": "hobbes", "ghc": "8.4.4", "patch": {"date": "2019-03-30T02:47:10Z", "hash": "c7a626fb3a5e8886551aaaf663fe28def04c44ba", "name": "remove Signal.to_pairs_unique"}, "run_date": "2019-03-30T19:20:54.261167"}
{"score": "save/complete/hex", "cpu": {"perform": [0.357568, 0.331988, 0.346218, 0.339533, 0.341468, 0.342409], "derive": [1.080402, 1.0917, 1.071111, 1.070845, 1.062283, 1.069992]}, "gc": {"total alloc": 2216.652503967285, "max alloc": 33.64292907714844, "productivity": 0.643}, "system": "hobbes", "ghc": "8.4.4", "patch": {"date": "2019-03-30T02:47:10Z", "hash": "c7a626fb3a5e8886551aaaf663fe28def04c44ba", "name": "remove Signal.to_pairs_unique"}, "run_date": "2019-03-30T19:20:54.261167"}
{"score": "save/complete/viola-sonata", "cpu": {"perform": [0.387713, 0.380325, 0.380657, 0.385456, 0.376051, 0.374955], "derive": [3.226627, 3.236962, 3.243647, 3.213031, 3.207908, 3.233015], "lilypond": [2.898507, 2.907768, 2.878857, 2.889298, 2.907414, 2.916512]}, "gc": {"total alloc": 6140.64697265625, "max alloc": 73.96617889404297, "productivity": 0.67}, "system": "hobbes", "ghc": "8.4.4", "patch": {"date": "2019-03-30T02:47:10Z", "hash": "c7a626fb3a5e8886551aaaf663fe28def04c44ba", "name": "remove Signal.to_pairs_unique"}, "run_date": "2019-03-30T19:20:54.261167"}
{"score": "save/complete/squart/6", "cpu": {"perform": [0.359156, 0.361453, 0.360765, 0.359577, 0.369199, 0.356987], "derive": [1.44458, 1.44849, 1.439404, 1.429898, 1.46657, 1.440122], "lilypond": [0.970725, 0.970863, 0.968817, 0.96735, 0.9776, 0.969469]}, "gc": {"total alloc": 3455.491554260254, "max alloc": 77.48500061035156, "productivity": 0.58}, "system": "hobbes", "ghc": "8.4.4", "patch": {"date": "2019-03-30T02:47:10Z", "hash": "c7a626fb3a5e8886551aaaf663fe28def04c44ba", "name": "remove Signal.to_pairs_unique"}, "run_date": "2019-03-30T19:20:54.261167"}
