{"score": "save/complete/wayang/p1", "cpu": {"derive": [1.861182, 1.83321, 1.806464, 1.720174, 1.792266, 1.965241], "perform": [0.354, 0.347796, 0.349667, 0.354026, 0.348905, 0.354734]}, "gc": {"total alloc": 2024.1804122924805, "max alloc": 40.41449737548828, "productivity": 0.447}, "failed": true, "system": "hobbes", "ghc": "8.8.3", "patch": {"date": "2020-08-21T03:42:20Z", "hash": "6daa7273bd85e5da15389e02a92e265418e0e0a6", "name": "test: fix not_equal display"}, "run_date": "2020-08-20T20:43:55.489918", "note": "hash-no-call-seed"}
{"score": "save/complete/wayang/cerucuk-punyah.state", "cpu": {"derive": [5.135062, 4.719514, 4.944161, 4.956038, 4.798802, 5.105471], "perform": [0.91996, 0.900421, 0.935249, 0.93069, 0.927628, 0.934405]}, "gc": {"total alloc": 4940.1203689575195, "max alloc": 73.36384582519531, "productivity": 0.484}, "failed": true, "system": "hobbes", "ghc": "8.8.3", "patch": {"date": "2020-08-21T03:42:20Z", "hash": "6daa7273bd85e5da15389e02a92e265418e0e0a6", "name": "test: fix not_equal display"}, "run_date": "2020-08-20T20:43:55.489918", "note": "hash-no-call-seed"}
{"score": "save/complete/bloom", "cpu": {"derive": [1.056565, 1.067623, 1.070382, 1.063368, 1.150545, 1.054626], "perform": [0.119737, 0.116206, 0.118274, 0.12284, 0.128111, 0.122012]}, "gc": {"total alloc": 1325.4064254760742, "max alloc": 39.93336486816406, "productivity": 0.47200000000000003}, "failed": true, "system": "hobbes", "ghc": "8.8.3", "patch": {"date": "2020-08-21T03:42:20Z", "hash": "6daa7273bd85e5da15389e02a92e265418e0e0a6", "name": "test: fix not_equal display"}, "run_date": "2020-08-20T20:43:55.489918", "note": "hash-no-call-seed"}
{"score": "save/complete/hex", "cpu": {"derive": [0.721473, 0.666022, 0.715121, 0.701869, 0.723015, 0.726685], "perform": [0.147538, 0.14008, 0.122788, 0.140429, 0.147357, 0.148683]}, "gc": {"total alloc": 1163.6708526611328, "max alloc": 30.23345184326172, "productivity": 0.483}, "failed": true, "system": "hobbes", "ghc": "8.8.3", "patch": {"date": "2020-08-21T03:42:20Z", "hash": "6daa7273bd85e5da15389e02a92e265418e0e0a6", "name": "test: fix not_equal display"}, "run_date": "2020-08-20T20:43:55.489918", "note": "hash-no-call-seed"}
{"score": "save/complete/viola-sonata", "cpu": {"lilypond": [1.44176, 1.458447, 1.445322, 1.531854, 1.429812, 1.535879], "derive": [1.652187, 1.810012, 1.66717, 1.836878, 1.66611, 1.665224], "perform": [0.20236, 0.215277, 0.215646, 0.209508, 0.189251, 0.205067]}, "gc": {"total alloc": 3104.904495239258, "max alloc": 40.58207702636719, "productivity": 0.551}, "failed": true, "system": "hobbes", "ghc": "8.8.3", "patch": {"date": "2020-08-21T03:42:20Z", "hash": "6daa7273bd85e5da15389e02a92e265418e0e0a6", "name": "test: fix not_equal display"}, "run_date": "2020-08-20T20:43:55.489918", "note": "hash-no-call-seed"}
{"score": "save/complete/squart/6", "cpu": {"lilypond": [0.584264, 0.574904, 0.522105, 0.50984, 0.581387, 0.512776], "derive": [0.68442, 0.62911, 0.697713, 0.63484, 0.689858, 0.695604], "perform": [0.497546, 0.453549, 0.505619, 0.476432, 0.479404, 0.458935]}, "gc": {"total alloc": 1799.6128311157227, "max alloc": 64.26780700683594, "productivity": 0.423}, "failed": true, "system": "hobbes", "ghc": "8.8.3", "patch": {"date": "2020-08-21T03:42:20Z", "hash": "6daa7273bd85e5da15389e02a92e265418e0e0a6", "name": "test: fix not_equal display"}, "run_date": "2020-08-20T20:43:55.489918", "note": "hash-no-call-seed"}
