{"score": "save/complete/wayang/p1", "cpu": {"perform": [0.350687, 0.349665, 0.365004, 0.363566, 0.340997, 0.343962], "derive": [1.796138, 1.936684, 2.008495, 1.944701, 1.983787, 1.855174]}, "gc": {"total alloc": 2040.3586044311523, "max alloc": 40.4149169921875, "productivity": 0.506}, "failed": true, "system": "hobbes", "ghc": "8.8.3", "patch": {"date": "2020-08-20T07:40:42Z", "hash": "e9db4f41981f1556a0cd213e0b09ae926d769e1b", "name": "rename profile_verify things to timing"}, "run_date": "2020-08-20T01:49:05.220026", "note": "no-call-seed"}
{"score": "save/complete/wayang/cerucuk-punyah.state", "cpu": {"perform": [0.91855, 0.899811, 0.913183, 0.922374, 0.920547, 0.943053], "derive": [4.868496, 5.007552, 4.939555, 5.149896, 5.120807, 5.235644]}, "gc": {"total alloc": 5015.256286621094, "max alloc": 73.20440673828125, "productivity": 0.518}, "failed": true, "system": "hobbes", "ghc": "8.8.3", "patch": {"date": "2020-08-20T07:40:42Z", "hash": "e9db4f41981f1556a0cd213e0b09ae926d769e1b", "name": "rename profile_verify things to timing"}, "run_date": "2020-08-20T01:49:05.220026", "note": "no-call-seed"}
{"score": "save/complete/bloom", "cpu": {"perform": [0.109073, 0.121661, 0.110301, 0.112879, 0.112497, 0.117273], "derive": [1.090657, 1.165618, 1.081805, 1.209539, 1.110694, 1.200507]}, "gc": {"total alloc": 1349.0291366577148, "max alloc": 39.93342590332031, "productivity": 0.465}, "failed": true, "system": "hobbes", "ghc": "8.8.3", "patch": {"date": "2020-08-20T07:40:42Z", "hash": "e9db4f41981f1556a0cd213e0b09ae926d769e1b", "name": "rename profile_verify things to timing"}, "run_date": "2020-08-20T01:49:05.220026", "note": "no-call-seed"}
{"score": "save/complete/hex", "cpu": {"perform": [0.139951, 0.125908, 0.133751, 0.119497, 0.137015, 0.127326], "derive": [0.746458, 0.672157, 0.704575, 0.705256, 0.758715, 0.7454]}, "gc": {"total alloc": 1178.932472229004, "max alloc": 30.83057403564453, "productivity": 0.499}, "failed": true, "system": "hobbes", "ghc": "8.8.3", "patch": {"date": "2020-08-20T07:40:42Z", "hash": "e9db4f41981f1556a0cd213e0b09ae926d769e1b", "name": "rename profile_verify things to timing"}, "run_date": "2020-08-20T01:49:05.220026", "note": "no-call-seed"}
{"score": "save/complete/viola-sonata", "cpu": {"perform": [0.3625, 0.390694, 0.407936, 0.385803, 0.408657, 0.387947], "derive": [1.778246, 1.778785, 1.970071, 1.961313, 1.928551, 1.952099], "lilypond": [1.496997, 1.518184, 1.401001, 1.527583, 1.475447, 1.378348]}, "gc": {"total alloc": 3242.849479675293, "max alloc": 62.67254638671875, "productivity": 0.557}, "failed": true, "system": "hobbes", "ghc": "8.8.3", "patch": {"date": "2020-08-20T07:40:42Z", "hash": "e9db4f41981f1556a0cd213e0b09ae926d769e1b", "name": "rename profile_verify things to timing"}, "run_date": "2020-08-20T01:49:05.220026", "note": "no-call-seed"}
{"score": "save/complete/squart/6", "cpu": {"perform": [0.436, 0.423416, 0.405347, 0.420948, 0.446856, 0.430081], "derive": [0.750361, 0.697717, 0.684964, 0.683945, 0.763431, 0.76355], "lilypond": [0.606903, 0.605464, 0.556808, 0.604927, 0.56191, 0.563464]}, "gc": {"total alloc": 1836.3417434692383, "max alloc": 64.25516510009766, "productivity": 0.435}, "failed": true, "system": "hobbes", "ghc": "8.8.3", "patch": {"date": "2020-08-20T07:40:42Z", "hash": "e9db4f41981f1556a0cd213e0b09ae926d769e1b", "name": "rename profile_verify things to timing"}, "run_date": "2020-08-20T01:49:05.220026", "note": "no-call-seed"}
