{"score": "save/complete/wayang/p1", "cpu": {"derive": [1.827436, 1.964944, 1.942379, 1.941535, 1.859543, 1.906864], "perform": [0.377322, 0.401082, 0.377126, 0.362547, 0.378374, 0.367319]}, "gc": {"total alloc": 2053.5978927612305, "max alloc": 32.28515625, "productivity": 0.49200000000000005}, "failed": true, "system": "hobbes", "ghc": "8.8.3", "patch": {"date": "2020-08-21T07:24:34Z", "hash": "b3c229f47e5149226c2fe773ec91b0caf258b449", "name": "make Internal.add_stack_frame skip Call frames"}, "run_date": "2020-08-21T15:32:32.665840", "note": "sum2-no-call-seed"}
{"score": "save/complete/wayang/cerucuk-punyah.state", "cpu": {"derive": [4.927504, 4.865728, 4.941616, 4.956989, 5.11511, 5.034756], "perform": [0.873354, 0.913747, 0.888106, 0.896014, 0.898795, 0.91548]}, "gc": {"total alloc": 4936.753326416016, "max alloc": 72.83032989501953, "productivity": 0.475}, "failed": true, "system": "hobbes", "ghc": "8.8.3", "patch": {"date": "2020-08-21T07:24:34Z", "hash": "b3c229f47e5149226c2fe773ec91b0caf258b449", "name": "make Internal.add_stack_frame skip Call frames"}, "run_date": "2020-08-21T15:32:32.665840", "note": "sum2-no-call-seed"}
{"score": "save/complete/bloom", "cpu": {"derive": [1.150494, 1.051424, 1.05119, 1.146171, 1.128254, 1.139501], "perform": [0.118857, 0.119138, 0.118321, 0.116567, 0.122809, 0.123915]}, "gc": {"total alloc": 1325.4609756469727, "max alloc": 39.933937072753906, "productivity": 0.433}, "failed": true, "system": "hobbes", "ghc": "8.8.3", "patch": {"date": "2020-08-21T07:24:34Z", "hash": "b3c229f47e5149226c2fe773ec91b0caf258b449", "name": "make Internal.add_stack_frame skip Call frames"}, "run_date": "2020-08-21T15:32:32.665840", "note": "sum2-no-call-seed"}
{"score": "save/complete/hex", "cpu": {"derive": [0.696307, 0.705895, 0.702242, 0.654409, 0.719495, 0.712817], "perform": [0.138747, 0.1365, 0.147727, 0.144419, 0.143111, 0.130816]}, "gc": {"total alloc": 1163.7281951904297, "max alloc": 30.261001586914062, "productivity": 0.496}, "failed": false, "system": "hobbes", "ghc": "8.8.3", "patch": {"date": "2020-08-21T07:24:34Z", "hash": "b3c229f47e5149226c2fe773ec91b0caf258b449", "name": "make Internal.add_stack_frame skip Call frames"}, "run_date": "2020-08-21T15:32:32.665840", "note": "sum2-no-call-seed"}
{"score": "save/complete/viola-sonata", "cpu": {"lilypond": [1.46848, 1.428237, 1.442571, 1.417345, 1.426355, 1.460798], "perform": [0.209954, 0.182735, 0.203818, 0.208503, 0.203022, 0.207666], "derive": [1.825335, 1.644297, 1.675872, 1.655923, 1.660105, 1.825289]}, "gc": {"total alloc": 3104.460060119629, "max alloc": 40.579742431640625, "productivity": 0.536}, "failed": true, "system": "hobbes", "ghc": "8.8.3", "patch": {"date": "2020-08-21T07:24:34Z", "hash": "b3c229f47e5149226c2fe773ec91b0caf258b449", "name": "make Internal.add_stack_frame skip Call frames"}, "run_date": "2020-08-21T15:32:32.665840", "note": "sum2-no-call-seed"}
{"score": "save/complete/squart/6", "cpu": {"lilypond": [0.543994, 0.576843, 0.581632, 0.509695, 0.570603, 0.577665], "perform": [0.46585, 0.467387, 0.48397, 0.456442, 0.479332, 0.474616], "derive": [0.692267, 0.694039, 0.62575, 0.690756, 0.692445, 0.677731]}, "gc": {"total alloc": 1799.45166015625, "max alloc": 64.27459716796875, "productivity": 0.41600000000000004}, "failed": false, "system": "hobbes", "ghc": "8.8.3", "patch": {"date": "2020-08-21T07:24:34Z", "hash": "b3c229f47e5149226c2fe773ec91b0caf258b449", "name": "make Internal.add_stack_frame skip Call frames"}, "run_date": "2020-08-21T15:32:32.665840", "note": "sum2-no-call-seed"}
