{"score": "save/complete/wayang/p1", "cpu": {"derive": [1.861213, 1.849927, 1.811443, 1.92374, 1.811542, 1.872997], "perform": [0.367396, 0.376625, 0.367696, 0.379114, 0.378965, 0.377303]}, "gc": {"total alloc": 2053.590690612793, "max alloc": 32.43547058105469, "productivity": 0.498}, "failed": true, "system": "hobbes", "ghc": "8.8.3", "patch": {"date": "2020-08-21T07:24:34Z", "hash": "b3c229f47e5149226c2fe773ec91b0caf258b449", "name": "make Internal.add_stack_frame skip Call frames"}, "run_date": "2020-08-21T09:28:20.676524", "note": "sum-no-call-seed"}
{"score": "save/complete/wayang/cerucuk-punyah.state", "cpu": {"derive": [4.926803, 4.974253, 4.84821, 4.830907, 4.927379, 4.991136], "perform": [0.910722, 0.895261, 0.881466, 0.919482, 0.881148, 0.893823]}, "gc": {"total alloc": 4936.74649810791, "max alloc": 72.82927703857422, "productivity": 0.483}, "failed": true, "system": "hobbes", "ghc": "8.8.3", "patch": {"date": "2020-08-21T07:24:34Z", "hash": "b3c229f47e5149226c2fe773ec91b0caf258b449", "name": "make Internal.add_stack_frame skip Call frames"}, "run_date": "2020-08-21T09:28:20.676524", "note": "sum-no-call-seed"}
{"score": "save/complete/bloom", "cpu": {"derive": [1.059333, 1.136029, 1.038659, 1.049843, 1.06142, 1.131327], "perform": [0.12309, 0.122871, 0.116355, 0.117084, 0.124416, 0.13063]}, "gc": {"total alloc": 1325.4614562988281, "max alloc": 39.933319091796875, "productivity": 0.444}, "failed": true, "system": "hobbes", "ghc": "8.8.3", "patch": {"date": "2020-08-21T07:24:34Z", "hash": "b3c229f47e5149226c2fe773ec91b0caf258b449", "name": "make Internal.add_stack_frame skip Call frames"}, "run_date": "2020-08-21T09:28:20.676524", "note": "sum-no-call-seed"}
{"score": "save/complete/hex", "cpu": {"derive": [0.642273, 0.605648, 0.662905, 0.717048, 0.698008, 0.728246], "perform": [0.142655, 0.122341, 0.146332, 0.146767, 0.143688, 0.141893]}, "gc": {"total alloc": 1163.7280578613281, "max alloc": 30.26085662841797, "productivity": 0.505}, "failed": false, "system": "hobbes", "ghc": "8.8.3", "patch": {"date": "2020-08-21T07:24:34Z", "hash": "b3c229f47e5149226c2fe773ec91b0caf258b449", "name": "make Internal.add_stack_frame skip Call frames"}, "run_date": "2020-08-21T09:28:20.676524", "note": "sum-no-call-seed"}
{"score": "save/complete/viola-sonata", "cpu": {"lilypond": [1.52269, 1.43289, 1.466174, 1.517854, 1.474037, 1.519088], "derive": [1.653179, 1.673003, 1.820805, 1.638511, 1.81802, 1.651204], "perform": [0.202924, 0.213995, 0.217278, 0.20485, 0.207923, 0.203024]}, "gc": {"total alloc": 3104.4539489746094, "max alloc": 40.57970428466797, "productivity": 0.546}, "failed": true, "system": "hobbes", "ghc": "8.8.3", "patch": {"date": "2020-08-21T07:24:34Z", "hash": "b3c229f47e5149226c2fe773ec91b0caf258b449", "name": "make Internal.add_stack_frame skip Call frames"}, "run_date": "2020-08-21T09:28:20.676524", "note": "sum-no-call-seed"}
{"score": "save/complete/squart/6", "cpu": {"lilypond": [0.572851, 0.520911, 0.515198, 0.51473, 0.560203, 0.571661], "derive": [0.686389, 0.630036, 0.686688, 0.688758, 0.564418, 0.681894], "perform": [0.462769, 0.440541, 0.481827, 0.415813, 0.442927, 0.473675]}, "gc": {"total alloc": 1799.4513397216797, "max alloc": 64.61274719238281, "productivity": 0.423}, "failed": false, "system": "hobbes", "ghc": "8.8.3", "patch": {"date": "2020-08-21T07:24:34Z", "hash": "b3c229f47e5149226c2fe773ec91b0caf258b449", "name": "make Internal.add_stack_frame skip Call frames"}, "run_date": "2020-08-21T09:28:20.676524", "note": "sum-no-call-seed"}
