{"score": "save/complete/wayang/p1", "cpu": {"derive": [2.887767, 2.881795, 3.02136, 2.921407, 2.945612, 2.874752], "perform": [0.642198, 0.637894, 0.646027, 0.652657, 0.63932, 0.639344]}, "gc": {"total alloc": 3655.697555541992, "max alloc": 52.29108428955078, "productivity": 0.619}, "system": "archy", "ghc": "8.8.2", "patch": {"date": "2020-08-10T04:21:31Z", "hash": "aeac1fbabdac04f64367622f35b27437466429c2", "name": "performance: add summarize to run_profile.py"}, "run_date": "2020-08-11T15:17:06.133591"}
{"score": "save/complete/wayang/cerucuk-punyah.state", "cpu": {"derive": [8.111671, 8.117494, 8.160597, 8.065973, 8.291163, 8.10846], "perform": [1.32366, 1.320735, 1.318071, 1.31598, 1.326626, 1.321372]}, "gc": {"total alloc": 9018.755668640137, "max alloc": 134.6281280517578, "productivity": 0.634}, "system": "archy", "ghc": "8.8.2", "patch": {"date": "2020-08-10T04:21:31Z", "hash": "aeac1fbabdac04f64367622f35b27437466429c2", "name": "performance: add summarize to run_profile.py"}, "run_date": "2020-08-11T15:17:06.133591"}
{"score": "save/complete/bloom", "cpu": {"derive": [1.570486, 1.786261, 1.800705, 1.773158, 1.589988, 1.784169], "perform": [0.397914, 0.183108, 0.182724, 0.21259, 0.394445, 0.185691]}, "gc": {"total alloc": 2478.285789489746, "max alloc": 44.438812255859375, "productivity": 0.5720000000000001}, "system": "archy", "ghc": "8.8.2", "patch": {"date": "2020-08-10T04:21:31Z", "hash": "aeac1fbabdac04f64367622f35b27437466429c2", "name": "performance: add summarize to run_profile.py"}, "run_date": "2020-08-11T15:17:06.133591"}
{"score": "save/complete/hex", "cpu": {"derive": [1.071207, 1.015338, 1.013049, 1.021348, 1.017415, 1.041609], "perform": [0.215939, 0.217463, 0.215569, 0.216156, 0.216485, 0.215318]}, "gc": {"total alloc": 2118.176628112793, "max alloc": 35.33264923095703, "productivity": 0.594}, "system": "archy", "ghc": "8.8.2", "patch": {"date": "2020-08-10T04:21:31Z", "hash": "aeac1fbabdac04f64367622f35b27437466429c2", "name": "performance: add summarize to run_profile.py"}, "run_date": "2020-08-11T15:17:06.133591"}
{"score": "save/complete/viola-sonata", "cpu": {"derive": [3.381914, 3.262343, 3.267482, 3.26018, 3.271186, 3.049548], "perform": [0.338216, 0.321396, 0.337071, 0.327385, 0.320028, 0.307334], "lilypond": [2.568063, 2.596034, 2.579654, 2.541994, 2.549905, 2.765749]}, "gc": {"total alloc": 6035.274940490723, "max alloc": 74.5952377319336, "productivity": 0.631}, "system": "archy", "ghc": "8.8.2", "patch": {"date": "2020-08-10T04:21:31Z", "hash": "aeac1fbabdac04f64367622f35b27437466429c2", "name": "performance: add summarize to run_profile.py"}, "run_date": "2020-08-11T15:17:06.133591"}
{"score": "save/complete/squart/6", "cpu": {"derive": [1.142534, 1.157181, 1.127767, 1.140712, 1.152274, 1.16075], "perform": [0.613798, 0.351411, 0.632155, 0.602557, 0.601356, 0.353939], "lilypond": [0.949027, 0.929528, 0.940488, 0.947482, 0.932247, 0.928757]}, "gc": {"total alloc": 3372.6817779541016, "max alloc": 56.81651306152344, "productivity": 0.519}, "system": "archy", "ghc": "8.8.2", "patch": {"date": "2020-08-10T04:21:31Z", "hash": "aeac1fbabdac04f64367622f35b27437466429c2", "name": "performance: add summarize to run_profile.py"}, "run_date": "2020-08-11T15:17:06.133591"}
