{"score": "save/complete/wayang/p1", "cpu": {"perform": [0.597668, 0.599955, 0.608248, 0.601828, 0.585687, 0.601111], "derive": [3.383676, 3.333047, 3.419765, 3.416871, 3.407655, 3.415538]}, "gc": {"total alloc": 3846.7607650756836, "max alloc": 67.27871704101562, "productivity": 0.667}, "system": "hobbes", "ghc": "8.4.4", "patch": {"date": "2020-01-07T14:29:57Z", "hash": "b5530cf01cbd6ef830abb36bd74dfdad56455411", "name": "shakefile: pad with spaces, not 0s"}, "run_date": "2020-01-10T08:43:20.153370"}
{"score": "save/complete/wayang/cerucuk-punyah.state", "cpu": {"perform": [1.604645, 1.643694, 1.659263, 1.710409, 1.678616, 1.66719], "derive": [8.856308, 8.94871, 8.95362, 8.885411, 8.949538, 8.86243]}, "gc": {"total alloc": 9408.944999694824, "max alloc": 134.8968276977539, "productivity": 0.691}, "system": "hobbes", "ghc": "8.4.4", "patch": {"date": "2020-01-07T14:29:57Z", "hash": "b5530cf01cbd6ef830abb36bd74dfdad56455411", "name": "shakefile: pad with spaces, not 0s"}, "run_date": "2020-01-10T08:43:20.153370"}
{"score": "save/complete/bloom", "cpu": {"perform": [0.220821, 0.220959, 0.224217, 0.228168, 0.201728, 0.216156], "derive": [2.061394, 2.065897, 2.057474, 2.051864, 2.046621, 2.058884]}, "gc": {"total alloc": 2620.3649673461914, "max alloc": 68.91553497314453, "productivity": 0.6409999999999999}, "system": "hobbes", "ghc": "8.4.4", "patch": {"date": "2020-01-07T14:29:57Z", "hash": "b5530cf01cbd6ef830abb36bd74dfdad56455411", "name": "shakefile: pad with spaces, not 0s"}, "run_date": "2020-01-10T08:43:20.153370"}
{"score": "save/complete/hex", "cpu": {"perform": [0.224611, 0.233425, 0.237769, 0.226473, 0.223903, 0.219322], "derive": [1.151016, 1.129876, 1.136826, 1.153153, 1.147599, 1.143683]}, "gc": {"total alloc": 2252.3438110351562, "max alloc": 33.744964599609375, "productivity": 0.696}, "system": "hobbes", "ghc": "8.4.4", "patch": {"date": "2020-01-07T14:29:57Z", "hash": "b5530cf01cbd6ef830abb36bd74dfdad56455411", "name": "shakefile: pad with spaces, not 0s"}, "run_date": "2020-01-10T08:43:20.153370"}
{"score": "save/complete/viola-sonata", "cpu": {"lilypond": [3.058135, 3.123197, 3.107946, 3.065079, 3.134933, 3.098833], "perform": [0.384154, 0.395041, 0.382726, 0.384449, 0.386622, 0.372044], "derive": [3.501224, 3.442462, 3.423739, 3.415277, 3.464958, 3.445148]}, "gc": {"total alloc": 6298.558135986328, "max alloc": 74.08138275146484, "productivity": 0.6940000000000001}, "system": "hobbes", "ghc": "8.4.4", "patch": {"date": "2020-01-07T14:29:57Z", "hash": "b5530cf01cbd6ef830abb36bd74dfdad56455411", "name": "shakefile: pad with spaces, not 0s"}, "run_date": "2020-01-10T08:43:20.153370"}
{"score": "save/complete/squart/6", "cpu": {"lilypond": [1.027608, 1.0396, 1.036991, 1.029126, 1.026342, 1.037763], "perform": [0.337924, 0.340808, 0.347959, 0.350591, 0.343846, 0.347642], "derive": [1.524653, 1.505843, 1.510126, 1.525744, 1.544239, 1.522296]}, "gc": {"total alloc": 3526.3906021118164, "max alloc": 77.48481750488281, "productivity": 0.624}, "system": "hobbes", "ghc": "8.4.4", "patch": {"date": "2020-01-07T14:29:57Z", "hash": "b5530cf01cbd6ef830abb36bd74dfdad56455411", "name": "shakefile: pad with spaces, not 0s"}, "run_date": "2020-01-10T08:43:20.153370"}
