{"score": "save/complete/wayang/p1", "cpu": {"derive": [1.673848064, 1.681388212, 1.682741154, 1.684340951, 1.668442878, 1.676808195], "perform": [0.331421109, 0.333151962, 0.333474102, 0.332691574, 0.334529678, 0.331487282]}, "gc": {"total alloc": 2036.1798400878906, "max alloc": 43.7645263671875, "productivity": 0.6679999999999999}, "failed": false, "system": "tammananny", "ghc": "8.8.2", "patch": {"date": "2020-08-11T04:19:46Z", "hash": "2ae76304d8d5997b07085ac650728b1243ec63db", "name": "performance: replace Seq.diff with hopefully more efficient Maps.pairs"}, "run_date": "2020-08-20T21:32:11.244956"}
{"score": "save/complete/wayang/cerucuk-punyah.state", "cpu": {"derive": [4.678112008, 4.660085529, 4.623960966, 4.660379878, 4.653194634, 4.619610794], "perform": [0.889837171, 0.902694536, 0.864488106, 0.892525917, 0.89535086, 0.866495773]}, "gc": {"total alloc": 5013.7468338012695, "max alloc": 94.4460220336914, "productivity": 0.6659999999999999}, "failed": false, "system": "tammananny", "ghc": "8.8.2", "patch": {"date": "2020-08-11T04:19:46Z", "hash": "2ae76304d8d5997b07085ac650728b1243ec63db", "name": "performance: replace Seq.diff with hopefully more efficient Maps.pairs"}, "run_date": "2020-08-20T21:32:11.244956"}
{"score": "save/complete/bloom", "cpu": {"derive": [0.946562227, 0.93213809, 0.954434113, 0.945405088, 0.960457043, 0.963569933], "perform": [0.200311141, 0.205551078, 0.208789538, 0.204576993, 0.206189719, 0.189827848]}, "gc": {"total alloc": 1357.438720703125, "max alloc": 44.933082580566406, "productivity": 0.5870000000000001}, "failed": false, "system": "tammananny", "ghc": "8.8.2", "patch": {"date": "2020-08-11T04:19:46Z", "hash": "2ae76304d8d5997b07085ac650728b1243ec63db", "name": "performance: replace Seq.diff with hopefully more efficient Maps.pairs"}, "run_date": "2020-08-20T21:32:11.244956"}
{"score": "save/complete/hex", "cpu": {"derive": [0.577791895, 0.574656474, 0.57116062, 0.572827287, 0.571768109, 0.576339906], "perform": [0.131244401, 0.131888118, 0.131813572, 0.120415539, 0.129474937, 0.131890183]}, "gc": {"total alloc": 1173.0673370361328, "max alloc": 21.00860595703125, "productivity": 0.638}, "failed": false, "system": "tammananny", "ghc": "8.8.2", "patch": {"date": "2020-08-11T04:19:46Z", "hash": "2ae76304d8d5997b07085ac650728b1243ec63db", "name": "performance: replace Seq.diff with hopefully more efficient Maps.pairs"}, "run_date": "2020-08-20T21:32:11.244956"}
{"score": "save/complete/viola-sonata", "cpu": {"lilypond": [1.537812301, 1.558938912, 1.481737132, 1.539251777, 1.541703729, 1.551751539], "perform": [0.195681764, 0.195313316, 0.19772576, 0.194250846, 0.196526012, 0.196716163], "derive": [1.802925138, 1.80984531, 1.80321076, 1.793522266, 1.761856733, 1.773807464]}, "gc": {"total alloc": 3339.1535110473633, "max alloc": 48.570289611816406, "productivity": 0.6609999999999999}, "failed": false, "system": "tammananny", "ghc": "8.8.2", "patch": {"date": "2020-08-11T04:19:46Z", "hash": "2ae76304d8d5997b07085ac650728b1243ec63db", "name": "performance: replace Seq.diff with hopefully more efficient Maps.pairs"}, "run_date": "2020-08-20T21:32:11.244956"}
{"score": "save/complete/squart/6", "cpu": {"lilypond": [0.547395907, 0.507281664, 0.551617774, 0.549124935, 0.553656819, 0.550866103], "perform": [0.229189309, 0.228723443, 0.230769878, 0.229403138, 0.226970132, 0.226228887], "derive": [0.75433754, 0.763821531, 0.764156523, 0.756844942, 0.757817364, 0.757359884]}, "gc": {"total alloc": 1863.4116897583008, "max alloc": 52.29041290283203, "productivity": 0.569}, "failed": false, "system": "tammananny", "ghc": "8.8.2", "patch": {"date": "2020-08-11T04:19:46Z", "hash": "2ae76304d8d5997b07085ac650728b1243ec63db", "name": "performance: replace Seq.diff with hopefully more efficient Maps.pairs"}, "run_date": "2020-08-20T21:32:11.244956"}
