{"score": "save/complete/wayang/p1", "cpu": {"perform": [0.366594, 0.379374, 0.347395, 0.352336, 0.360423, 0.369299], "derive": [1.967611, 1.905899, 1.814125, 1.857052, 1.91641, 1.871694]}, "gc": {"total alloc": 2041.496337890625, "max alloc": 32.45391845703125, "productivity": 0.541}, "system": "hobbes", "ghc": "8.8.3", "patch": {"date": "2020-08-11T05:58:01Z", "hash": "eb0402405ff4cbdeeb697efe94ac53a6f71835c1", "name": "performance: instead of setting scale on every pitch track, only set when it changes"}, "run_date": "2020-08-20T00:11:20.118698"}
{"score": "save/complete/wayang/cerucuk-punyah.state", "cpu": {"perform": [0.87479, 0.904784, 0.933554, 0.887545, 0.879942, 0.933452], "derive": [4.968859, 5.354526, 5.346616, 5.067254, 5.335073, 5.179775]}, "gc": {"total alloc": 4984.998352050781, "max alloc": 72.5921630859375, "productivity": 0.546}, "system": "hobbes", "ghc": "8.8.3", "patch": {"date": "2020-08-11T05:58:01Z", "hash": "eb0402405ff4cbdeeb697efe94ac53a6f71835c1", "name": "performance: instead of setting scale on every pitch track, only set when it changes"}, "run_date": "2020-08-20T00:11:20.118698"}
{"score": "save/complete/bloom", "cpu": {"perform": [0.109778, 0.105883, 0.105319, 0.146516, 0.113498, 0.110269], "derive": [1.150083, 1.093193, 1.125704, 1.174998, 1.238922, 1.128516]}, "gc": {"total alloc": 1370.6879043579102, "max alloc": 39.93318176269531, "productivity": 0.484}, "system": "hobbes", "ghc": "8.8.3", "patch": {"date": "2020-08-11T05:58:01Z", "hash": "eb0402405ff4cbdeeb697efe94ac53a6f71835c1", "name": "performance: instead of setting scale on every pitch track, only set when it changes"}, "run_date": "2020-08-20T00:11:20.118698"}
{"score": "save/complete/hex", "cpu": {"perform": [0.133617, 0.12842, 0.152185, 0.135459, 0.132254, 0.138237], "derive": [0.679053, 0.708854, 0.707166, 0.721514, 0.718859, 0.757443]}, "gc": {"total alloc": 1190.1639404296875, "max alloc": 31.397483825683594, "productivity": 0.523}, "system": "hobbes", "ghc": "8.8.3", "patch": {"date": "2020-08-11T05:58:01Z", "hash": "eb0402405ff4cbdeeb697efe94ac53a6f71835c1", "name": "performance: instead of setting scale on every pitch track, only set when it changes"}, "run_date": "2020-08-20T00:11:20.118698"}
{"score": "save/complete/viola-sonata", "cpu": {"lilypond": [1.549234, 1.433325, 1.428747, 1.445155, 1.544127, 1.532028], "perform": [0.207393, 0.195025, 0.209843, 0.187446, 0.194643, 0.200648], "derive": [2.222144, 2.015348, 2.012361, 2.067037, 2.22783, 2.246346]}, "gc": {"total alloc": 3329.02294921875, "max alloc": 64.84034729003906, "productivity": 0.546}, "system": "hobbes", "ghc": "8.8.3", "patch": {"date": "2020-08-11T05:58:01Z", "hash": "eb0402405ff4cbdeeb697efe94ac53a6f71835c1", "name": "performance: instead of setting scale on every pitch track, only set when it changes"}, "run_date": "2020-08-20T00:11:20.118698"}
{"score": "save/complete/squart/6", "cpu": {"lilypond": [0.57817, 0.576081, 0.588245, 0.574429, 0.653159, 0.595278], "perform": [0.435951, 0.414489, 0.45696, 0.447791, 0.453612, 0.419614], "derive": [0.709441, 0.710862, 0.807907, 0.768219, 0.796876, 0.707487]}, "gc": {"total alloc": 1870.0783920288086, "max alloc": 64.22876739501953, "productivity": 0.46}, "system": "hobbes", "ghc": "8.8.3", "patch": {"date": "2020-08-11T05:58:01Z", "hash": "eb0402405ff4cbdeeb697efe94ac53a6f71835c1", "name": "performance: instead of setting scale on every pitch track, only set when it changes"}, "run_date": "2020-08-20T00:11:20.118698"}
