{"score": "save/complete/wayang/p1", "cpu": {"derive": [1.632899648, 1.639102282, 1.630842935, 1.637235611, 1.648851177, 1.650592103], "perform": [0.308110831, 0.324167692, 0.311286494, 0.329456154, 0.329805465, 0.328767363]}, "gc": {"total alloc": 2018.4042053222656, "max alloc": 43.56269073486328, "productivity": 0.665}, "failed": false, "system": "tammananny", "ghc": "8.8.2", "patch": {"date": "2020-08-21T03:57:10Z", "hash": "326899b6f25e42bad7d625621a88bb479bad7f2c", "name": "add a bunch of features to tools/timing"}, "run_date": "2020-08-20T21:42:19.251357"}
{"score": "save/complete/wayang/cerucuk-punyah.state", "cpu": {"derive": [4.554305194, 4.565086173, 4.617960637, 4.564236655, 4.575076111, 4.593834654], "perform": [0.873344835, 0.879314287, 0.876850052, 0.87940479, 0.877493232, 0.873505404]}, "gc": {"total alloc": 4961.905914306641, "max alloc": 96.59911346435547, "productivity": 0.652}, "failed": false, "system": "tammananny", "ghc": "8.8.2", "patch": {"date": "2020-08-21T03:57:10Z", "hash": "326899b6f25e42bad7d625621a88bb479bad7f2c", "name": "add a bunch of features to tools/timing"}, "run_date": "2020-08-20T21:42:19.251357"}
{"score": "save/complete/bloom", "cpu": {"derive": [0.927365447, 0.922408135, 0.926799474, 0.925913027, 0.92978735, 0.927620866], "perform": [0.196588345, 0.196251465, 0.19492206, 0.19992444, 0.197299814, 0.197793082]}, "gc": {"total alloc": 1347.5970840454102, "max alloc": 44.87066650390625, "productivity": 0.583}, "failed": false, "system": "tammananny", "ghc": "8.8.2", "patch": {"date": "2020-08-21T03:57:10Z", "hash": "326899b6f25e42bad7d625621a88bb479bad7f2c", "name": "add a bunch of features to tools/timing"}, "run_date": "2020-08-20T21:42:19.251357"}
{"score": "save/complete/hex", "cpu": {"derive": [0.561410318, 0.563482762, 0.564552819, 0.566930484, 0.560511321, 0.561200503], "perform": [0.13146175, 0.131609684, 0.13215582, 0.128221064, 0.1320693, 0.131994052]}, "gc": {"total alloc": 1167.0773086547852, "max alloc": 21.040992736816406, "productivity": 0.635}, "failed": false, "system": "tammananny", "ghc": "8.8.2", "patch": {"date": "2020-08-21T03:57:10Z", "hash": "326899b6f25e42bad7d625621a88bb479bad7f2c", "name": "add a bunch of features to tools/timing"}, "run_date": "2020-08-20T21:42:19.251357"}
{"score": "save/complete/viola-sonata", "cpu": {"derive": [1.759099675, 1.774304255, 1.753773343, 1.753701786, 1.77078866, 1.766069718], "lilypond": [1.502932388, 1.513304035, 1.492321436, 1.501864477, 1.523624978, 1.475045585], "perform": [0.192363583, 0.192919844, 0.194312354, 0.192976647, 0.194567291, 0.195745446]}, "gc": {"total alloc": 3305.858200073242, "max alloc": 49.537445068359375, "productivity": 0.659}, "failed": false, "system": "tammananny", "ghc": "8.8.2", "patch": {"date": "2020-08-21T03:57:10Z", "hash": "326899b6f25e42bad7d625621a88bb479bad7f2c", "name": "add a bunch of features to tools/timing"}, "run_date": "2020-08-20T21:42:19.251357"}
{"score": "save/complete/squart/6", "cpu": {"derive": [0.739297951, 0.745550388, 0.740750263, 0.746561998, 0.749374001, 0.742955513], "lilypond": [0.491131746, 0.530948729, 0.527132866, 0.488921312, 0.525722915, 0.526200691], "perform": [0.230315135, 0.225411617, 0.230983344, 0.228903218, 0.231641607, 0.223390286]}, "gc": {"total alloc": 1846.9164962768555, "max alloc": 52.15569305419922, "productivity": 0.564}, "failed": false, "system": "tammananny", "ghc": "8.8.2", "patch": {"date": "2020-08-21T03:57:10Z", "hash": "326899b6f25e42bad7d625621a88bb479bad7f2c", "name": "add a bunch of features to tools/timing"}, "run_date": "2020-08-20T21:42:19.251357"}
