{"score": "save/complete/wayang/p1", "cpu": {"perform": [0.573024, 0.373126, 0.366445, 0.38342, 0.541372, 0.378182], "derive": [1.842141, 1.867531, 1.763176, 1.862447, 1.850591, 1.954173]}, "gc": {"total alloc": 1898.697898864746, "max alloc": 32.228004455566406, "productivity": 0.483}, "failed": false, "system": "hobbes", "ghc": "8.8.3", "patch": {"date": "2021-05-15T23:20:54Z", "hash": "0725d84aa0be0106fb6843eb16cbc0a5943bf144", "name": "performance: add a memo table for Derive.Parse.parse_expr"}, "run_date": "2021-05-15T16:46:52.730358"}
{"score": "save/complete/wayang/cerucuk-punyah.state", "cpu": {"perform": [0.85228, 0.900869, 0.892944, 0.89757, 0.946998, 0.912912], "derive": [4.701119, 4.649178, 4.743999, 4.72242, 4.751478, 4.522482]}, "gc": {"total alloc": 4531.043907165527, "max alloc": 72.53081512451172, "productivity": 0.523}, "failed": false, "system": "hobbes", "ghc": "8.8.3", "patch": {"date": "2021-05-15T23:20:54Z", "hash": "0725d84aa0be0106fb6843eb16cbc0a5943bf144", "name": "performance: add a memo table for Derive.Parse.parse_expr"}, "run_date": "2021-05-15T16:46:52.730358"}
{"score": "save/complete/bloom", "cpu": {"perform": [0.110875, 0.114407, 0.113098, 0.113143, 0.110665, 0.107956], "derive": [0.914725, 0.929839, 0.910625, 0.921509, 1.016341, 0.920926]}, "gc": {"total alloc": 1222.2646560668945, "max alloc": 39.943115234375, "productivity": 0.469}, "failed": false, "system": "hobbes", "ghc": "8.8.3", "patch": {"date": "2021-05-15T23:20:54Z", "hash": "0725d84aa0be0106fb6843eb16cbc0a5943bf144", "name": "performance: add a memo table for Derive.Parse.parse_expr"}, "run_date": "2021-05-15T16:46:52.730358"}
{"score": "save/complete/hex", "cpu": {"perform": [0.141988, 0.141122, 0.126417, 0.147072, 0.129002, 0.131928], "derive": [0.621554, 0.625613, 0.670875, 0.691152, 0.597101, 0.630363]}, "gc": {"total alloc": 1110.6188430786133, "max alloc": 30.323272705078125, "productivity": 0.509}, "failed": false, "system": "hobbes", "ghc": "8.8.3", "patch": {"date": "2021-05-15T23:20:54Z", "hash": "0725d84aa0be0106fb6843eb16cbc0a5943bf144", "name": "performance: add a memo table for Derive.Parse.parse_expr"}, "run_date": "2021-05-15T16:46:52.730358"}
{"score": "save/complete/viola-sonata", "cpu": {"derive": [1.699268, 1.705517, 1.568993, 1.56129, 1.551002, 1.574833], "lilypond": [1.386725, 1.320256, 1.303147, 1.306544, 1.291127, 1.30441], "perform": [0.195171, 0.205469, 0.197098, 0.20548, 0.205622, 0.199134]}, "gc": {"total alloc": 2717.9868927001953, "max alloc": 40.575218200683594, "productivity": 0.556}, "failed": false, "system": "hobbes", "ghc": "8.8.3", "patch": {"date": "2021-05-15T23:20:54Z", "hash": "0725d84aa0be0106fb6843eb16cbc0a5943bf144", "name": "performance: add a memo table for Derive.Parse.parse_expr"}, "run_date": "2021-05-15T16:46:52.730358"}
{"score": "save/complete/squart/6", "cpu": {"derive": [0.692081, 0.648327, 0.710562, 0.642932, 0.718494, 0.696667], "lilypond": [0.480005, 0.532738, 0.48247, 0.530068, 0.543404, 0.49431], "perform": [0.391979, 0.422404, 0.401029, 0.418228, 0.427749, 0.415815]}, "gc": {"total alloc": 1672.3162155151367, "max alloc": 64.07191467285156, "productivity": 0.415}, "failed": false, "system": "hobbes", "ghc": "8.8.3", "patch": {"date": "2021-05-15T23:20:54Z", "hash": "0725d84aa0be0106fb6843eb16cbc0a5943bf144", "name": "performance: add a memo table for Derive.Parse.parse_expr"}, "run_date": "2021-05-15T16:46:52.730358"}
